{
  "type": "service_account",
  "project_id": "awesomeproj123",
  "private_key_id": "dd7b97537c761719c078521edc0c55101b817a4b",
  "private_key": "-----BEGIN PRIVATE KEY-----\nMIIEvgIBADANBgkqhkiG9w0BAQEFAASCBKgwggSkAgEAAoIBAQDEpkCG8KtgQ/AV\n+evDsJni+d/xCKGOZVA23MTFRa4rAFTA6AYBl4eEOuqBqw/UHHm7Xtf1xodsTGDs\nWCn36BW5oAgKe8imm7Sx4glCoRDhWiDd8FW7nZUBPe0IDuA40ApgdDy/jPUBzFED\nW1dt2xF2iTi+G+exbln5tq+aW5X5Fr8GKbzuKI29IVszr0wqDKaHA9TSYMaC+cUI\nTc5CmV++QTdrK70Q/L7sPOjsnVYjSLAWuxilnxbeJ+Pa6NKFOf+U32AXPSAupa3A\nYuhWn8mAMi2p3r5sCAAZcFYRR0Gl+HuxpMrBeK2vLM+3ddIUJbvD644eG/8XoykS\nbpChXZT7AgMBAAECggEAD2lYy5qHUSXnO3muOf8YWFsCliEkiYSJevs7VUXm5p+B\n2j/KNLa7m/0tYsMqxudXvPurtisnHYbbiQ+cc72Acl9HMgx4cbeTO5D+Q8wGsXqU\nR9XYNOTJMuM3tTbL6M1D0EJb08adbv95u+cdMigF4Cx/QhrtbLuRbp9xd19FINO9\n3SPxo0X11cVtuRpOALHjKOA5nBpFkpaA53MgWluJLwLJy+Bh0F/QT+E6Mr45c6ov\nLcyCXwHUfRt7HvxXNCliQjUqvsYfWgJfKmy85hTgMXjk3lS+Yok3noDBSWsj16sD\nmVlQJisZe9yjyLfK9P9vEGoKn+ko3Fe6DzRj1vst4QKBgQDhtaKtq3OU6/x2iPZ9\nXx7MLRpMTz+E7f9Voo9P5AZ8h1LuIV52D8DEtU+Jw4QuDs7y2IrdqnPvvT+DWmad\nNmCRWwp7Ex7+Wm9oqAeZ5syNFqhb8D1IyJJanaNKVJpNGy56FMfQw3naP28RbvCh\n4o0NXj0gF0IhseCAsn2oKGVVmwKBgQDfCj4RXjk1Es6TDEu2sZ1SpD3b/7eqBp2a\nid7ErFm1LJ1ie9whGFR5XJs16LBYLOIiUxinmH69N1JhfgB1XSy62JemDzsb/8WI\npnzZ2Om1qXlJqQCqLwFn29y9ebc31tkHYnw5SxCLssG5Mrf1+szFoaUj+KgZnZaL\nJ19ISOdkIQKBgQCBWKraZbe97yLl9wVywXEPxwUcGAopro410Ava160T7iULTFoq\nxEpPMCxdoYr9LgVQy+GAuG7qQ4TDTKojjAb5Jbgy4blQQBk6W5jHjKlKbWKcFWe5\nbx/YCCCMt0EZ0OrokUIVFACfntySnAYQb5kvwQK8gjemwZ4Lgr5aAJRZ4wKBgQDP\nrlndEj9yi/COPATEON6k9QoksBf02fQm0fn8Z/+gE8r4yRxQNLdzyic8K08Iy8JE\n89shM33P8pNi9FC49+mOkd+jYMtJZwAoHd5jevcjkIq/a/6SePJ2IuOICq3v8L5l\nge7p6luduPVp3TAueznxTHLY69CbCYIEUMUIKdpMAQKBgCyNL65EL8fbDLsSYzyf\nEWL/f0xZWhzj/RCtxIv7k2xE+0/YWr9GlMQ4EYDZ2FjfbB9BrP8y7J5CuPpSa+tH\nuz0RwC2n5APapVNyhHMgdG93FgMis+qlSKAfamsYU3rNVgv+Xrq+P+mP/813s/1+\nlAdJd54WEJYzDZdOhQMasBVV\n-----END PRIVATE KEY-----\n",
  "client_email": "firebase-adminsdk-hlndr@awesomeproj123.iam.gserviceaccount.com",
  "client_id": "111227687153916564172",
  "auth_uri": "https://accounts.google.com/o/oauth2/auth",
  "token_uri": "https://oauth2.googleapis.com/token",
  "auth_provider_x509_cert_url": "https://www.googleapis.com/oauth2/v1/certs",
  "client_x509_cert_url": "https://www.googleapis.com/robot/v1/metadata/x509/firebase-adminsdk-hlndr%40awesomeproj123.iam.gserviceaccount.com"
}
